…
Looking good, although these lyrics are displayed in the order in which they 
occur.  Let's sort them and take a look at what the most common words are.


```r
# What are the most common words? 
count(unnested, word, sort=TRUE)
```

```
## # A tibble: 4,596 × 2
##     word     n
##    <chr> <int>
## 1    the  1828
## 2    and  1021
## 3    you   972
## 4      i   940
## 5      a   897
## 6     to   788
## 7     in   591
## 8     of   587
## 9     my   501
## 10    me   453
## # ... with 4,586 more rows
```
…
```
## Joining, by = "word"
```

```r
# Cool, let's try again!
count(unnested, word, sort=TRUE)
```

```
## # A tibble: 4,129 × 2
##     word     n
##    <chr> <int>
## 1   love   221
## 2   time   141
## 3   life   102
## 4   eyes    98
## 5   baby    93
## 6     ya    87
## 7    day    86
## 8  world    69
## 9   feel    62
## 10 night    61
## # ... with 4,119 more rows
```
…
